{
	"proxy": "localhost",
	"ui_port": "3001",
	"port": "3000",
	"styles": {
		"source": 		"./template/assets/styles/**/*.scss",
		"destination":	"./../assets/styles"
	},
	"scripts": {
		"source": 			"./template/assets/scripts/script.js",
		"allsource": 		"./template/assets/scripts/**/*.js",
		"destination":		"./../assets/scripts",
		"output":			"scripts.js"
	},
	"customizer": {
		"source": 			"./template/assets/scripts/customizer.js",
		"destination":		"./../assets/scripts",
		"output":			"customizer.js"
	},
	"images": {
		"source":		"./template/assets/img/**/*.+(png|jpg|gif|svg)",
		"destination":	"./../assets/img"
	},
	"clean_pattern": [
		"./../**/*", 
		"!./../_project/**/*", 
		"!./../.gitignore", 
		"!./../.git/**/*"
	],
	"template_pattern": [
		"./template/**/*", 
		"!./template/assets/styles/**/*", 
		"!./template/assets/scripts/**/*",
		"!./template/assets/img/**/*"
	],
	"move_dest": "./../"
}